Nov-29 14:00:49.480 [main] DEBUG nextflow.cli.Launcher - $> /home/joe/software/nextflow/nextflow run first_test.nf
Nov-29 14:00:49.579 [main] INFO  nextflow.cli.CmdRun - N E X T F L O W  ~  version 0.11.1
Nov-29 14:00:49.900 [main] DEBUG nextflow.Session - Session uuid: a86d7fba-9533-46bc-9df5-4d2e9808b849
Nov-29 14:00:49.904 [main] DEBUG nextflow.Session - Executor pool size: 3
Nov-29 14:00:49.924 [main] DEBUG nextflow.cli.CmdRun - 
  Version: 0.11.1 build 2357
  Modified: 11-11-2014 08:47 UTC (02:47 CDT)
  System: Linux 3.13.0-32-generic
  Runtime: Groovy 2.3.7 on OpenJDK 64-Bit Server VM 1.7.0_55-b14
  Encoding: UTF-8 (UTF-8)
  Address: joe-3570R-370R-470R-450R-510R-4450RV [127.0.1.1]

Nov-29 14:00:49.935 [main] DEBUG nextflow.Session - Session start > phaser register (session)
Nov-29 14:00:49.944 [main] DEBUG nextflow.processor.TaskDispatcher - Dispatcher > start
Nov-29 14:00:49.945 [main] DEBUG nextflow.script.ScriptRunner - > Script parsing
Nov-29 14:00:50.175 [main] DEBUG nextflow.script.ScriptRunner - > Launching execution
Nov-29 14:00:50.296 [main] DEBUG nextflow.processor.ProcessFactory - << taskConfig executor: null
Nov-29 14:00:50.296 [main] DEBUG nextflow.processor.ProcessFactory - >> processorType: 'local'
Nov-29 14:00:50.307 [main] DEBUG nextflow.executor.Executor - Initializing executor: local
Nov-29 14:00:50.310 [main] INFO  nextflow.executor.Executor - [warm up] executor > local
Nov-29 14:00:50.353 [main] DEBUG n.processor.TaskPollingMonitor - Creating task monitor for executor 'local' > capacity: 3; pollInterval: 100ms; dumpInterval: 5m 
Nov-29 14:00:50.368 [main] DEBUG nextflow.processor.TaskDispatcher - Starting monitor: TaskPollingMonitor
Nov-29 14:00:50.369 [main] DEBUG n.processor.TaskPollingMonitor - >>> phaser register (scheduler)
Nov-29 14:00:50.385 [main] DEBUG nextflow.executor.Executor - Invoke register for executor: local
Nov-29 14:00:50.503 [main] DEBUG nextflow.script.BaseParam - output > channel unknown: add_output -- creating a new instance
Nov-29 14:00:50.553 [main] DEBUG n.processor.ParallelTaskProcessor - Creating operator > add_n -- maxForks: 3
Nov-29 14:00:50.578 [main] DEBUG nextflow.Session - >>> phaser register (process)
Nov-29 14:00:50.594 [main] DEBUG nextflow.processor.ProcessFactory - << taskConfig executor: null
Nov-29 14:00:50.594 [main] DEBUG nextflow.processor.ProcessFactory - >> processorType: 'local'
Nov-29 14:00:50.594 [main] DEBUG nextflow.executor.Executor - Initializing executor: local
Nov-29 14:00:50.596 [main] DEBUG nextflow.script.BaseParam - output > channel unknown: rename_out -- creating a new instance
Nov-29 14:00:50.618 [main] DEBUG n.processor.ParallelTaskProcessor - Creating operator > rename -- maxForks: 3
Nov-29 14:00:50.626 [main] DEBUG nextflow.Session - >>> phaser register (process)
Nov-29 14:00:50.630 [main] DEBUG nextflow.processor.ProcessFactory - << taskConfig executor: null
Nov-29 14:00:50.630 [main] DEBUG nextflow.processor.ProcessFactory - >> processorType: 'local'
Nov-29 14:00:50.631 [main] DEBUG nextflow.executor.Executor - Initializing executor: local
Nov-29 14:00:50.633 [main] DEBUG nextflow.script.BaseParam - output > channel unknown: mult_out -- creating a new instance
Nov-29 14:00:50.656 [main] DEBUG n.processor.ParallelTaskProcessor - Creating operator > mult_n -- maxForks: 3
Nov-29 14:00:50.656 [main] DEBUG nextflow.Session - >>> phaser register (process)
Nov-29 14:00:50.657 [main] DEBUG nextflow.script.ScriptRunner - > Await termination 
Nov-29 14:00:50.740 [Actor Thread 3] DEBUG nextflow.Session - Script base path does not exist or is not a directory: /home/joe/bitbucket-repos/docker_fun/nextflow/bin
Nov-29 14:00:50.807 [Actor Thread 3] INFO  nextflow.processor.TaskDispatcher - [aa/df86f6] Submitted process > add_n (1)
Nov-29 14:00:52.014 [Actor Thread 2] DEBUG nextflow.processor.TaskProcessor - <add_n> Sending poison pills and terminating process
Nov-29 14:00:52.020 [Actor Thread 3] DEBUG n.processor.ParallelTaskProcessor - <rename> Poison pill arrived
Nov-29 14:00:52.021 [Actor Thread 2] DEBUG nextflow.Session - <<< phaser deregister (process)
Nov-29 14:00:52.022 [Actor Thread 2] DEBUG nextflow.processor.StateObj - <rename> State before poison: StateObj[submitted: 1; completed: 0; poisoned: false; allScalar: false]
Nov-29 14:00:52.027 [Actor Thread 1] DEBUG n.processor.ParallelTaskProcessor - <add_n> After stop -- shareObjs [:]
Nov-29 14:00:52.052 [Actor Thread 4] INFO  nextflow.processor.TaskDispatcher - [0f/728ba6] Submitted process > rename (1)
Nov-29 14:00:52.070 [Actor Thread 2] DEBUG nextflow.processor.TaskProcessor - <rename> Sending poison pills and terminating process
Nov-29 14:00:52.071 [Actor Thread 2] DEBUG nextflow.Session - <<< phaser deregister (process)
Nov-29 14:00:52.071 [Actor Thread 4] DEBUG n.processor.ParallelTaskProcessor - <mult_n> Poison pill arrived
Nov-29 14:00:52.071 [Actor Thread 3] DEBUG n.processor.ParallelTaskProcessor - <rename> After stop -- shareObjs [:]
Nov-29 14:00:52.073 [Actor Thread 5] DEBUG nextflow.processor.StateObj - <mult_n> State before poison: StateObj[submitted: 1; completed: 0; poisoned: false; allScalar: false]
Nov-29 14:00:52.084 [Actor Thread 1] INFO  nextflow.processor.TaskDispatcher - [25/bdcdb6] Submitted process > mult_n (1)
Nov-29 14:00:52.909 [Actor Thread 5] DEBUG nextflow.processor.TaskProcessor - <mult_n> Sending poison pills and terminating process
Nov-29 14:00:52.910 [Actor Thread 5] DEBUG nextflow.Session - <<< phaser deregister (process)
Nov-29 14:00:52.910 [Actor Thread 1] DEBUG n.processor.ParallelTaskProcessor - <mult_n> After stop -- shareObjs [:]
Nov-29 14:00:52.911 [main] DEBUG nextflow.Session - <<< phaser deregister (session)
Nov-29 14:00:53.007 [Thread-2] DEBUG n.processor.TaskPollingMonitor - <<< phaser de-register (scheduler)
Nov-29 14:00:53.008 [main] DEBUG nextflow.Session - Session await > done
Nov-29 14:00:53.024 [main] DEBUG nextflow.Session - Session destroyed
