Nov-29 14:50:02.421 [main] DEBUG nextflow.cli.Launcher - $> /home/joe/software/nextflow/nextflow run first_test.nf
Nov-29 14:50:02.503 [main] INFO  nextflow.cli.CmdRun - N E X T F L O W  ~  version 0.11.1
Nov-29 14:50:02.884 [main] DEBUG nextflow.Session - Session uuid: 6ded48b2-8d51-4d47-b8e5-54316e109d62
Nov-29 14:50:02.887 [main] DEBUG nextflow.Session - Executor pool size: 3
Nov-29 14:50:02.918 [main] DEBUG nextflow.cli.CmdRun - 
  Version: 0.11.1 build 2357
  Modified: 11-11-2014 08:47 UTC (02:47 CDT)
  System: Linux 3.13.0-32-generic
  Runtime: Groovy 2.3.7 on OpenJDK 64-Bit Server VM 1.7.0_55-b14
  Encoding: UTF-8 (UTF-8)
  Address: joe-3570R-370R-470R-450R-510R-4450RV [127.0.1.1]

Nov-29 14:50:02.936 [main] DEBUG nextflow.Session - Session start > phaser register (session)
Nov-29 14:50:02.950 [main] DEBUG nextflow.processor.TaskDispatcher - Dispatcher > start
Nov-29 14:50:02.952 [main] DEBUG nextflow.script.ScriptRunner - > Script parsing
Nov-29 14:50:03.227 [main] DEBUG nextflow.script.ScriptRunner - > Launching execution
Nov-29 14:50:03.371 [main] DEBUG nextflow.processor.ProcessFactory - << taskConfig executor: null
Nov-29 14:50:03.372 [main] DEBUG nextflow.processor.ProcessFactory - >> processorType: 'local'
Nov-29 14:50:03.388 [main] DEBUG nextflow.executor.Executor - Initializing executor: local
Nov-29 14:50:03.393 [main] INFO  nextflow.executor.Executor - [warm up] executor > local
Nov-29 14:50:03.414 [main] DEBUG n.processor.TaskPollingMonitor - Creating task monitor for executor 'local' > capacity: 3; pollInterval: 100ms; dumpInterval: 5m 
Nov-29 14:50:03.431 [main] DEBUG nextflow.processor.TaskDispatcher - Starting monitor: TaskPollingMonitor
Nov-29 14:50:03.432 [main] DEBUG n.processor.TaskPollingMonitor - >>> phaser register (scheduler)
Nov-29 14:50:03.450 [main] DEBUG nextflow.executor.Executor - Invoke register for executor: local
Nov-29 14:50:03.620 [main] DEBUG nextflow.script.BaseParam - output > channel unknown: add_output -- creating a new instance
Nov-29 14:50:03.669 [main] DEBUG n.processor.ParallelTaskProcessor - Creating operator > add_n -- maxForks: 3
Nov-29 14:50:03.693 [main] DEBUG nextflow.Session - >>> phaser register (process)
Nov-29 14:50:03.712 [main] DEBUG nextflow.processor.ProcessFactory - << taskConfig executor: null
Nov-29 14:50:03.712 [main] DEBUG nextflow.processor.ProcessFactory - >> processorType: 'local'
Nov-29 14:50:03.713 [main] DEBUG nextflow.executor.Executor - Initializing executor: local
Nov-29 14:50:03.715 [main] DEBUG nextflow.script.BaseParam - output > channel unknown: mult_out -- creating a new instance
Nov-29 14:50:03.737 [main] DEBUG n.processor.ParallelTaskProcessor - Creating operator > mult_n -- maxForks: 3
Nov-29 14:50:03.742 [main] DEBUG nextflow.Session - >>> phaser register (process)
Nov-29 14:50:03.742 [main] DEBUG nextflow.script.ScriptRunner - > Await termination 
Nov-29 14:50:03.846 [Actor Thread 3] DEBUG nextflow.Session - Script base path does not exist or is not a directory: /home/joe/bitbucket-repos/docker_fun/nextflow/bin
Nov-29 14:50:03.926 [Actor Thread 3] INFO  nextflow.processor.TaskDispatcher - [d6/041ac9] Submitted process > add_n (1)
Nov-29 14:50:05.061 [Actor Thread 2] DEBUG nextflow.processor.TaskProcessor - <add_n> Sending poison pills and terminating process
Nov-29 14:50:05.065 [Actor Thread 3] DEBUG n.processor.ParallelTaskProcessor - <mult_n> Poison pill arrived
Nov-29 14:50:05.066 [Actor Thread 2] DEBUG nextflow.Session - <<< phaser deregister (process)
Nov-29 14:50:05.067 [Actor Thread 1] DEBUG n.processor.ParallelTaskProcessor - <add_n> After stop -- shareObjs [:]
Nov-29 14:50:05.070 [Actor Thread 5] DEBUG nextflow.processor.StateObj - <mult_n> State before poison: StateObj[submitted: 1; completed: 0; poisoned: false; allScalar: false]
Nov-29 14:50:05.084 [Actor Thread 4] INFO  nextflow.processor.TaskDispatcher - [3b/056fe1] Submitted process > mult_n (1)
Nov-29 14:50:05.844 [Actor Thread 5] DEBUG nextflow.processor.TaskProcessor - <mult_n> Sending poison pills and terminating process
Nov-29 14:50:05.844 [Actor Thread 5] DEBUG nextflow.Session - <<< phaser deregister (process)
Nov-29 14:50:05.844 [Actor Thread 4] DEBUG n.processor.ParallelTaskProcessor - <mult_n> After stop -- shareObjs [:]
Nov-29 14:50:05.845 [main] DEBUG nextflow.Session - <<< phaser deregister (session)
Nov-29 14:50:05.942 [Thread-2] DEBUG n.processor.TaskPollingMonitor - <<< phaser de-register (scheduler)
Nov-29 14:50:05.943 [main] DEBUG nextflow.Session - Session await > done
Nov-29 14:50:05.957 [main] DEBUG nextflow.Session - Session destroyed
