Nov-29 14:03:28.936 [main] DEBUG nextflow.cli.Launcher - $> /home/joe/software/nextflow/nextflow run first_test.nf
Nov-29 14:03:29.036 [main] INFO  nextflow.cli.CmdRun - N E X T F L O W  ~  version 0.11.1
Nov-29 14:03:29.361 [main] DEBUG nextflow.Session - Session uuid: 22471f84-d639-40a9-a2d6-64bad7dc6c7e
Nov-29 14:03:29.364 [main] DEBUG nextflow.Session - Executor pool size: 3
Nov-29 14:03:29.386 [main] DEBUG nextflow.cli.CmdRun - 
  Version: 0.11.1 build 2357
  Modified: 11-11-2014 08:47 UTC (02:47 CDT)
  System: Linux 3.13.0-32-generic
  Runtime: Groovy 2.3.7 on OpenJDK 64-Bit Server VM 1.7.0_55-b14
  Encoding: UTF-8 (UTF-8)
  Address: joe-3570R-370R-470R-450R-510R-4450RV [127.0.1.1]

Nov-29 14:03:29.398 [main] DEBUG nextflow.Session - Session start > phaser register (session)
Nov-29 14:03:29.408 [main] DEBUG nextflow.processor.TaskDispatcher - Dispatcher > start
Nov-29 14:03:29.408 [main] DEBUG nextflow.script.ScriptRunner - > Script parsing
Nov-29 14:03:29.719 [main] DEBUG nextflow.script.ScriptRunner - > Launching execution
Nov-29 14:03:29.892 [main] DEBUG nextflow.processor.ProcessFactory - << taskConfig executor: null
Nov-29 14:03:29.892 [main] DEBUG nextflow.processor.ProcessFactory - >> processorType: 'local'
Nov-29 14:03:29.909 [main] DEBUG nextflow.executor.Executor - Initializing executor: local
Nov-29 14:03:29.914 [main] INFO  nextflow.executor.Executor - [warm up] executor > local
Nov-29 14:03:29.964 [main] DEBUG n.processor.TaskPollingMonitor - Creating task monitor for executor 'local' > capacity: 3; pollInterval: 100ms; dumpInterval: 5m 
Nov-29 14:03:29.978 [main] DEBUG nextflow.processor.TaskDispatcher - Starting monitor: TaskPollingMonitor
Nov-29 14:03:29.980 [main] DEBUG n.processor.TaskPollingMonitor - >>> phaser register (scheduler)
Nov-29 14:03:29.996 [main] DEBUG nextflow.executor.Executor - Invoke register for executor: local
Nov-29 14:03:30.124 [main] DEBUG nextflow.script.BaseParam - output > channel unknown: add_output -- creating a new instance
Nov-29 14:03:30.176 [main] DEBUG n.processor.ParallelTaskProcessor - Creating operator > add_n -- maxForks: 3
Nov-29 14:03:30.201 [main] DEBUG nextflow.Session - >>> phaser register (process)
Nov-29 14:03:30.218 [main] DEBUG nextflow.processor.ProcessFactory - << taskConfig executor: null
Nov-29 14:03:30.218 [main] DEBUG nextflow.processor.ProcessFactory - >> processorType: 'local'
Nov-29 14:03:30.218 [main] DEBUG nextflow.executor.Executor - Initializing executor: local
Nov-29 14:03:30.220 [main] DEBUG nextflow.script.BaseParam - output > channel unknown: rename_out -- creating a new instance
Nov-29 14:03:30.243 [main] DEBUG n.processor.ParallelTaskProcessor - Creating operator > rename -- maxForks: 3
Nov-29 14:03:30.243 [main] DEBUG nextflow.Session - >>> phaser register (process)
Nov-29 14:03:30.248 [main] DEBUG nextflow.processor.ProcessFactory - << taskConfig executor: null
Nov-29 14:03:30.248 [main] DEBUG nextflow.processor.ProcessFactory - >> processorType: 'local'
Nov-29 14:03:30.249 [main] DEBUG nextflow.executor.Executor - Initializing executor: local
Nov-29 14:03:30.251 [main] DEBUG nextflow.script.BaseParam - output > channel unknown: mult_out -- creating a new instance
Nov-29 14:03:30.274 [main] DEBUG n.processor.ParallelTaskProcessor - Creating operator > mult_n -- maxForks: 3
Nov-29 14:03:30.275 [main] DEBUG nextflow.Session - >>> phaser register (process)
Nov-29 14:03:30.275 [main] DEBUG nextflow.script.ScriptRunner - > Await termination 
Nov-29 14:03:30.346 [Actor Thread 4] DEBUG nextflow.Session - Script base path does not exist or is not a directory: /home/joe/bitbucket-repos/docker_fun/nextflow/bin
Nov-29 14:03:30.403 [Actor Thread 4] INFO  nextflow.processor.TaskDispatcher - [eb/cf4029] Submitted process > add_n (1)
Nov-29 14:03:31.178 [Actor Thread 3] DEBUG nextflow.processor.TaskProcessor - <add_n> Sending poison pills and terminating process
Nov-29 14:03:31.184 [Actor Thread 4] DEBUG n.processor.ParallelTaskProcessor - <rename> Poison pill arrived
Nov-29 14:03:31.185 [Actor Thread 3] DEBUG nextflow.Session - <<< phaser deregister (process)
Nov-29 14:03:31.186 [Actor Thread 1] DEBUG n.processor.ParallelTaskProcessor - <add_n> After stop -- shareObjs [:]
Nov-29 14:03:31.188 [Actor Thread 5] DEBUG nextflow.processor.StateObj - <rename> State before poison: StateObj[submitted: 1; completed: 0; poisoned: false; allScalar: false]
Nov-29 14:03:31.196 [Actor Thread 2] INFO  nextflow.processor.TaskDispatcher - [99/9ad36d] Submitted process > rename (1)
Nov-29 14:03:31.213 [Actor Thread 3] DEBUG nextflow.processor.TaskProcessor - <rename> Sending poison pills and terminating process
Nov-29 14:03:31.214 [Actor Thread 3] DEBUG nextflow.Session - <<< phaser deregister (process)
Nov-29 14:03:31.214 [Actor Thread 2] DEBUG n.processor.ParallelTaskProcessor - <mult_n> Poison pill arrived
Nov-29 14:03:31.214 [Actor Thread 1] DEBUG n.processor.ParallelTaskProcessor - <rename> After stop -- shareObjs [:]
Nov-29 14:03:31.215 [Actor Thread 5] DEBUG nextflow.processor.StateObj - <mult_n> State before poison: StateObj[submitted: 1; completed: 0; poisoned: false; allScalar: false]
Nov-29 14:03:31.227 [Actor Thread 4] INFO  nextflow.processor.TaskDispatcher - [e3/aadccf] Submitted process > mult_n (1)
Nov-29 14:03:31.921 [Actor Thread 3] DEBUG nextflow.processor.TaskProcessor - <mult_n> Sending poison pills and terminating process
Nov-29 14:03:31.921 [Actor Thread 3] DEBUG nextflow.Session - <<< phaser deregister (process)
Nov-29 14:03:31.922 [Actor Thread 4] DEBUG n.processor.ParallelTaskProcessor - <mult_n> After stop -- shareObjs [:]
Nov-29 14:03:31.922 [main] DEBUG nextflow.Session - <<< phaser deregister (session)
Nov-29 14:03:32.018 [Thread-2] DEBUG n.processor.TaskPollingMonitor - <<< phaser de-register (scheduler)
Nov-29 14:03:32.019 [main] DEBUG nextflow.Session - Session await > done
Nov-29 14:03:32.035 [main] DEBUG nextflow.Session - Session destroyed
