Traceback (most recent call last):
  File "/mult_n.py", line 32, in <module>
    main()
  File "/mult_n.py", line 29, in main
    mult(int(args.factor))
  File "/mult_n.py", line 9, in mult
    with open('/tmp/input', 'r') as f:
IOError: [Errno 2] No such file or directory: '/tmp/input'
